%YAML 1.1
%TAG !u! tag:unity3d.com,2011:
--- !u!78 &1
TagManager:
  serializedVersion: 2
  tags:
  - GroundLine
  - RoadLine
  - RiverLine
  - RoadLineDefault
  - EndLine
  - Obstacle
  - Cell
  - Vehicle
  - Log
  - StartGameZone
  - EndGameZone
  - Coin
  layers:
  - Default
  - TransparentFX
  - Ignore Raycast
  - 
  - Water
  - UI
  - Player
  - Obstacle
  - Ground
  - Bound
  - MoveTarget
  - Vehicle
  - Collectables
  - Log
  - 
  - 
  - 
  - 
  - 
  - 
  - 
  - 
  - 
  - 
  - 
  - 
  - 
  - 
  - 
  - 
  - 
  - 
  m_SortingLayers:
  - name: Default
    uniqueID: 0
    locked: 0
